<?xml version="1.0" encoding="UTF-8" standalone="no"?>
<svg
   xmlns:dc="http://purl.org/dc/elements/1.1/"
   xmlns:cc="http://creativecommons.org/ns#"
   xmlns:rdf="http://www.w3.org/1999/02/22-rdf-syntax-ns#"
   xmlns:svg="http://www.w3.org/2000/svg"
   xmlns="http://www.w3.org/2000/svg"
   viewBox="0 0 384 237.32504"
   height="237.32504"
   width="384"
   xml:space="preserve"
   id="svg2"
   version="1.1"><metadata
     id="metadata8"><rdf:RDF><cc:Work
         rdf:about=""><dc:format>image/svg+xml</dc:format><dc:type
           rdf:resource="http://purl.org/dc/dcmitype/StillImage" /><dc:title></dc:title></cc:Work></rdf:RDF></metadata><defs
     id="defs6"><clipPath
       id="clipPath270"
       clipPathUnits="userSpaceOnUse"><path
         id="path268"
         d="M 37.461965,26.669095 H 286.5 V 176.49379 H 37.461965 Z" /></clipPath><clipPath
       id="clipPath280"
       clipPathUnits="userSpaceOnUse"><path
         id="path278"
         d="m -6.5,-6.5 h 13 v 13 h -13 z" /></clipPath><clipPath
       id="clipPath292"
       clipPathUnits="userSpaceOnUse"><path
         id="path290"
         d="m -6.5,-6.5 h 13 v 13 h -13 z" /></clipPath><clipPath
       id="clipPath304"
       clipPathUnits="userSpaceOnUse"><path
         id="path302"
         d="m -6.5,-6.5 h 13 v 13 h -13 z" /></clipPath><clipPath
       id="clipPath316"
       clipPathUnits="userSpaceOnUse"><path
         id="path314"
         d="m -6.5,-6.5 h 13 v 13 h -13 z" /></clipPath><clipPath
       id="clipPath328"
       clipPathUnits="userSpaceOnUse"><path
         id="path326"
         d="m -6.5,-6.5 h 13 v 13 h -13 z" /></clipPath><clipPath
       id="clipPath338"
       clipPathUnits="userSpaceOnUse"><path
         id="path336"
         d="M 37.461965,26.669095 H 286.5 V 176.49379 H 37.461965 Z" /></clipPath><clipPath
       id="clipPath348"
       clipPathUnits="userSpaceOnUse"><path
         id="path346"
         d="M 37.461965,26.669095 H 286.5 V 176.49379 H 37.461965 Z" /></clipPath><clipPath
       id="clipPath358"
       clipPathUnits="userSpaceOnUse"><path
         id="path356"
         d="m -6.5,-6.5 h 13 v 13 h -13 z" /></clipPath><clipPath
       id="clipPath370"
       clipPathUnits="userSpaceOnUse"><path
         id="path368"
         d="m -6.5,-6.5 h 13 v 13 h -13 z" /></clipPath><clipPath
       id="clipPath382"
       clipPathUnits="userSpaceOnUse"><path
         id="path380"
         d="m -6.5,-6.5 h 13 v 13 h -13 z" /></clipPath><clipPath
       id="clipPath394"
       clipPathUnits="userSpaceOnUse"><path
         id="path392"
         d="m -6.5,-6.5 h 13 v 13 h -13 z" /></clipPath><clipPath
       id="clipPath404"
       clipPathUnits="userSpaceOnUse"><path
         id="path402"
         d="M 37.461965,26.669095 H 286.5 V 176.49379 H 37.461965 Z" /></clipPath><clipPath
       id="clipPath414"
       clipPathUnits="userSpaceOnUse"><path
         id="path412"
         d="M 37.461965,26.669095 H 286.5 V 176.49379 H 37.461965 Z" /></clipPath><clipPath
       id="clipPath424"
       clipPathUnits="userSpaceOnUse"><path
         id="path422"
         d="m -6.5,-6.5 h 13 v 13 h -13 z" /></clipPath><clipPath
       id="clipPath436"
       clipPathUnits="userSpaceOnUse"><path
         id="path434"
         d="m -6.5,-6.5 h 13 v 13 h -13 z" /></clipPath><clipPath
       id="clipPath448"
       clipPathUnits="userSpaceOnUse"><path
         id="path446"
         d="m -6.5,-6.5 h 13 v 13 h -13 z" /></clipPath><clipPath
       id="clipPath460"
       clipPathUnits="userSpaceOnUse"><path
         id="path458"
         d="m -6.5,-6.5 h 13 v 13 h -13 z" /></clipPath><clipPath
       id="clipPath472"
       clipPathUnits="userSpaceOnUse"><path
         id="path470"
         d="m -6.5,-6.5 h 13 v 13 h -13 z" /></clipPath><clipPath
       id="clipPath482"
       clipPathUnits="userSpaceOnUse"><path
         id="path480"
         d="M 37.461965,26.669095 H 286.5 V 176.49379 H 37.461965 Z" /></clipPath></defs><g
     transform="matrix(1.3333333,0,0,-1.3333333,0,237.32505)"
     id="g10"><path
       id="path12"
       style="fill:#ffffff;fill-opacity:1;fill-rule:nonzero;stroke:none"
       d="M 0,0 H 288 V 177.99379 H 0 Z" /><path
       id="path14"
       style="fill:#ffffff;fill-opacity:1;fill-rule:nonzero;stroke:none"
       d="M 37.461965,26.669095 H 286.5 V 176.49379 H 37.461965 Z" /><path
       id="path16"
       style="fill:#000000;fill-opacity:1;fill-rule:nonzero;stroke:#000000;stroke-width:0.80000001;stroke-linecap:butt;stroke-linejoin:round;stroke-miterlimit:10;stroke-dasharray:none;stroke-opacity:1"
       d="m 249.42009,26.669095 v -3.5" /><text
       id="text20"
       style="font-variant:normal;font-weight:normal;font-size:7.97011185px;font-family:CMR8;-inkscape-font-specification:CMR8;writing-mode:lr-tb;fill:#000000;fill-opacity:1;fill-rule:nonzero;stroke:none"
       transform="matrix(1,0,0,-1,243.35946,14.134293)"><tspan
         id="tspan18"
         y="0"
         x="0 4.2321296">10</tspan></text>
<text
       id="text24"
       style="font-variant:normal;font-weight:normal;font-size:5.97758389px;font-family:CMR6;-inkscape-font-specification:CMR6;writing-mode:lr-tb;fill:#000000;fill-opacity:1;fill-rule:nonzero;stroke:none"
       transform="matrix(1,0,0,-1,251.82782,16.947079)"><tspan
         id="tspan22"
         y="0"
         x="0">0</tspan></text>
<path
       id="path26"
       style="fill:#000000;fill-opacity:1;fill-rule:nonzero;stroke:#000000;stroke-width:0.60000002;stroke-linecap:butt;stroke-linejoin:round;stroke-miterlimit:10;stroke-dasharray:none;stroke-opacity:1"
       d="m 63.624393,26.669095 v -2" /><text
       id="text30"
       style="font-variant:normal;font-weight:normal;font-size:7.97011185px;font-family:CMR8;-inkscape-font-specification:CMR8;writing-mode:lr-tb;fill:#000000;fill-opacity:1;fill-rule:nonzero;stroke:none"
       transform="matrix(1,0,0,-1,47.39348,15.323587)"><tspan
         id="tspan28"
         y="0"
         x="0">2</tspan></text>
<text
       id="text34"
       style="font-style:italic;font-variant:normal;font-weight:normal;font-size:7.97011185px;font-family:CMSY8;-inkscape-font-specification:CMSY8;writing-mode:lr-tb;fill:#000000;fill-opacity:1;fill-rule:nonzero;stroke:none"
       transform="matrix(1,0,0,-1,53.509522,15.323587)"><tspan
         id="tspan32"
         y="0"
         x="0">×</tspan></text>
<text
       id="text38"
       style="font-variant:normal;font-weight:normal;font-size:7.97011185px;font-family:CMR8;-inkscape-font-specification:CMR8;writing-mode:lr-tb;fill:#000000;fill-opacity:1;fill-rule:nonzero;stroke:none"
       transform="matrix(1,0,0,-1,61.977888,15.323587)"><tspan
         id="tspan36"
         y="0"
         x="0 4.2321296">10</tspan></text>
<text
       id="text42"
       style="font-style:italic;font-variant:normal;font-weight:normal;font-size:5.97758389px;font-family:CMSY6;-inkscape-font-specification:CMSY6;writing-mode:lr-tb;fill:#000000;fill-opacity:1;fill-rule:nonzero;stroke:none"
       transform="matrix(1,0,0,-1,70.446253,18.136372)"><tspan
         id="tspan40"
         y="0"
         x="0">−</tspan></text>
<text
       id="text46"
       style="font-variant:normal;font-weight:normal;font-size:5.97758389px;font-family:CMR6;-inkscape-font-specification:CMR6;writing-mode:lr-tb;fill:#000000;fill-opacity:1;fill-rule:nonzero;stroke:none"
       transform="matrix(1,0,0,-1,76.202393,18.136372)"><tspan
         id="tspan44"
         y="0"
         x="0">1</tspan></text>
<path
       id="path48"
       style="fill:#000000;fill-opacity:1;fill-rule:nonzero;stroke:#000000;stroke-width:0.60000002;stroke-linecap:butt;stroke-linejoin:round;stroke-miterlimit:10;stroke-dasharray:none;stroke-opacity:1"
       d="m 110.43184,26.669095 v -2" /><text
       id="text52"
       style="font-variant:normal;font-weight:normal;font-size:7.97011185px;font-family:CMR8;-inkscape-font-specification:CMR8;writing-mode:lr-tb;fill:#000000;fill-opacity:1;fill-rule:nonzero;stroke:none"
       transform="matrix(1,0,0,-1,94.200924,15.323587)"><tspan
         id="tspan50"
         y="0"
         x="0">3</tspan></text>
<text
       id="text56"
       style="font-style:italic;font-variant:normal;font-weight:normal;font-size:7.97011185px;font-family:CMSY8;-inkscape-font-specification:CMSY8;writing-mode:lr-tb;fill:#000000;fill-opacity:1;fill-rule:nonzero;stroke:none"
       transform="matrix(1,0,0,-1,100.31697,15.323587)"><tspan
         id="tspan54"
         y="0"
         x="0">×</tspan></text>
<text
       id="text60"
       style="font-variant:normal;font-weight:normal;font-size:7.97011185px;font-family:CMR8;-inkscape-font-specification:CMR8;writing-mode:lr-tb;fill:#000000;fill-opacity:1;fill-rule:nonzero;stroke:none"
       transform="matrix(1,0,0,-1,108.78533,15.323587)"><tspan
         id="tspan58"
         y="0"
         x="0 4.2321296">10</tspan></text>
<text
       id="text64"
       style="font-style:italic;font-variant:normal;font-weight:normal;font-size:5.97758389px;font-family:CMSY6;-inkscape-font-specification:CMSY6;writing-mode:lr-tb;fill:#000000;fill-opacity:1;fill-rule:nonzero;stroke:none"
       transform="matrix(1,0,0,-1,117.2537,18.136372)"><tspan
         id="tspan62"
         y="0"
         x="0">−</tspan></text>
<text
       id="text68"
       style="font-variant:normal;font-weight:normal;font-size:5.97758389px;font-family:CMR6;-inkscape-font-specification:CMR6;writing-mode:lr-tb;fill:#000000;fill-opacity:1;fill-rule:nonzero;stroke:none"
       transform="matrix(1,0,0,-1,123.00984,18.136372)"><tspan
         id="tspan66"
         y="0"
         x="0">1</tspan></text>
<path
       id="path70"
       style="fill:#000000;fill-opacity:1;fill-rule:nonzero;stroke:#000000;stroke-width:0.60000002;stroke-linecap:butt;stroke-linejoin:round;stroke-miterlimit:10;stroke-dasharray:none;stroke-opacity:1"
       d="m 143.64225,26.669095 v -2" /><text
       id="text74"
       style="font-variant:normal;font-weight:normal;font-size:7.97011185px;font-family:CMR8;-inkscape-font-specification:CMR8;writing-mode:lr-tb;fill:#000000;fill-opacity:1;fill-rule:nonzero;stroke:none"
       transform="matrix(1,0,0,-1,127.41133,15.323587)"><tspan
         id="tspan72"
         y="0"
         x="0">4</tspan></text>
<text
       id="text78"
       style="font-style:italic;font-variant:normal;font-weight:normal;font-size:7.97011185px;font-family:CMSY8;-inkscape-font-specification:CMSY8;writing-mode:lr-tb;fill:#000000;fill-opacity:1;fill-rule:nonzero;stroke:none"
       transform="matrix(1,0,0,-1,133.52738,15.323587)"><tspan
         id="tspan76"
         y="0"
         x="0">×</tspan></text>
<text
       id="text82"
       style="font-variant:normal;font-weight:normal;font-size:7.97011185px;font-family:CMR8;-inkscape-font-specification:CMR8;writing-mode:lr-tb;fill:#000000;fill-opacity:1;fill-rule:nonzero;stroke:none"
       transform="matrix(1,0,0,-1,141.99574,15.323587)"><tspan
         id="tspan80"
         y="0"
         x="0 4.2321296">10</tspan></text>
<text
       id="text86"
       style="font-style:italic;font-variant:normal;font-weight:normal;font-size:5.97758389px;font-family:CMSY6;-inkscape-font-specification:CMSY6;writing-mode:lr-tb;fill:#000000;fill-opacity:1;fill-rule:nonzero;stroke:none"
       transform="matrix(1,0,0,-1,150.46411,18.136372)"><tspan
         id="tspan84"
         y="0"
         x="0">−</tspan></text>
<text
       id="text90"
       style="font-variant:normal;font-weight:normal;font-size:5.97758389px;font-family:CMR6;-inkscape-font-specification:CMR6;writing-mode:lr-tb;fill:#000000;fill-opacity:1;fill-rule:nonzero;stroke:none"
       transform="matrix(1,0,0,-1,156.22025,18.136372)"><tspan
         id="tspan88"
         y="0"
         x="0">1</tspan></text>
<path
       id="path92"
       style="fill:#000000;fill-opacity:1;fill-rule:nonzero;stroke:#000000;stroke-width:0.60000002;stroke-linecap:butt;stroke-linejoin:round;stroke-miterlimit:10;stroke-dasharray:none;stroke-opacity:1"
       d="m 169.40224,26.669095 v -2" /><path
       id="path94"
       style="fill:#000000;fill-opacity:1;fill-rule:nonzero;stroke:#000000;stroke-width:0.60000002;stroke-linecap:butt;stroke-linejoin:round;stroke-miterlimit:10;stroke-dasharray:none;stroke-opacity:1"
       d="m 190.44969,26.669095 v -2" /><text
       id="text98"
       style="font-variant:normal;font-weight:normal;font-size:7.97011185px;font-family:CMR8;-inkscape-font-specification:CMR8;writing-mode:lr-tb;fill:#000000;fill-opacity:1;fill-rule:nonzero;stroke:none"
       transform="matrix(1,0,0,-1,174.21878,15.323587)"><tspan
         id="tspan96"
         y="0"
         x="0">6</tspan></text>
<text
       id="text102"
       style="font-style:italic;font-variant:normal;font-weight:normal;font-size:7.97011185px;font-family:CMSY8;-inkscape-font-specification:CMSY8;writing-mode:lr-tb;fill:#000000;fill-opacity:1;fill-rule:nonzero;stroke:none"
       transform="matrix(1,0,0,-1,180.33482,15.323587)"><tspan
         id="tspan100"
         y="0"
         x="0">×</tspan></text>
<text
       id="text106"
       style="font-variant:normal;font-weight:normal;font-size:7.97011185px;font-family:CMR8;-inkscape-font-specification:CMR8;writing-mode:lr-tb;fill:#000000;fill-opacity:1;fill-rule:nonzero;stroke:none"
       transform="matrix(1,0,0,-1,188.80318,15.323587)"><tspan
         id="tspan104"
         y="0"
         x="0 4.2321296">10</tspan></text>
<text
       id="text110"
       style="font-style:italic;font-variant:normal;font-weight:normal;font-size:5.97758389px;font-family:CMSY6;-inkscape-font-specification:CMSY6;writing-mode:lr-tb;fill:#000000;fill-opacity:1;fill-rule:nonzero;stroke:none"
       transform="matrix(1,0,0,-1,197.27155,18.136372)"><tspan
         id="tspan108"
         y="0"
         x="0">−</tspan></text>
<text
       id="text114"
       style="font-variant:normal;font-weight:normal;font-size:5.97758389px;font-family:CMR6;-inkscape-font-specification:CMR6;writing-mode:lr-tb;fill:#000000;fill-opacity:1;fill-rule:nonzero;stroke:none"
       transform="matrix(1,0,0,-1,203.02769,18.136372)"><tspan
         id="tspan112"
         y="0"
         x="0">1</tspan></text>
<path
       id="path116"
       style="fill:#000000;fill-opacity:1;fill-rule:nonzero;stroke:#000000;stroke-width:0.60000002;stroke-linecap:butt;stroke-linejoin:round;stroke-miterlimit:10;stroke-dasharray:none;stroke-opacity:1"
       d="m 208.24505,26.669095 v -2" /><path
       id="path118"
       style="fill:#000000;fill-opacity:1;fill-rule:nonzero;stroke:#000000;stroke-width:0.60000002;stroke-linecap:butt;stroke-linejoin:round;stroke-miterlimit:10;stroke-dasharray:none;stroke-opacity:1"
       d="m 223.6601,26.669095 v -2" /><path
       id="path120"
       style="fill:#000000;fill-opacity:1;fill-rule:nonzero;stroke:#000000;stroke-width:0.60000002;stroke-linecap:butt;stroke-linejoin:round;stroke-miterlimit:10;stroke-dasharray:none;stroke-opacity:1"
       d="m 237.25713,26.669095 v -2" /><text
       id="text124"
       style="font-style:italic;font-variant:normal;font-weight:normal;font-size:7.97011185px;font-family:CMMI8;-inkscape-font-specification:CMMI8;writing-mode:lr-tb;fill:#000000;fill-opacity:1;fill-rule:nonzero;stroke:none"
       transform="matrix(1,0,0,-1,159.54103,3.0497457)"><tspan
         id="tspan122"
         y="0"
         x="0">h</tspan></text>
<path
       id="path126"
       style="fill:#000000;fill-opacity:1;fill-rule:nonzero;stroke:#000000;stroke-width:0.80000001;stroke-linecap:butt;stroke-linejoin:round;stroke-miterlimit:10;stroke-dasharray:none;stroke-opacity:1"
       d="m 37.461965,57.632923 h -3.5" /><text
       id="text130"
       style="font-variant:normal;font-weight:normal;font-size:7.97011185px;font-family:CMR8;-inkscape-font-specification:CMR8;writing-mode:lr-tb;fill:#000000;fill-opacity:1;fill-rule:nonzero;stroke:none"
       transform="matrix(1,0,0,-1,12.584547,54.865522)"><tspan
         id="tspan128"
         y="0"
         x="0 4.2321296">10</tspan></text>
<text
       id="text134"
       style="font-style:italic;font-variant:normal;font-weight:normal;font-size:5.97758389px;font-family:CMSY6;-inkscape-font-specification:CMSY6;writing-mode:lr-tb;fill:#000000;fill-opacity:1;fill-rule:nonzero;stroke:none"
       transform="matrix(1,0,0,-1,21.052913,57.678308)"><tspan
         id="tspan132"
         y="0"
         x="0">−</tspan></text>
<text
       id="text138"
       style="font-variant:normal;font-weight:normal;font-size:5.97758389px;font-family:CMR6;-inkscape-font-specification:CMR6;writing-mode:lr-tb;fill:#000000;fill-opacity:1;fill-rule:nonzero;stroke:none"
       transform="matrix(1,0,0,-1,26.809053,57.678308)"><tspan
         id="tspan136"
         y="0"
         x="0">3</tspan></text>
<path
       id="path140"
       style="fill:#000000;fill-opacity:1;fill-rule:nonzero;stroke:#000000;stroke-width:0.80000001;stroke-linecap:butt;stroke-linejoin:round;stroke-miterlimit:10;stroke-dasharray:none;stroke-opacity:1"
       d="m 37.461965,89.010061 h -3.5" /><text
       id="text144"
       style="font-variant:normal;font-weight:normal;font-size:7.97011185px;font-family:CMR8;-inkscape-font-specification:CMR8;writing-mode:lr-tb;fill:#000000;fill-opacity:1;fill-rule:nonzero;stroke:none"
       transform="matrix(1,0,0,-1,12.584547,86.24266)"><tspan
         id="tspan142"
         y="0"
         x="0 4.2321296">10</tspan></text>
<text
       id="text148"
       style="font-style:italic;font-variant:normal;font-weight:normal;font-size:5.97758389px;font-family:CMSY6;-inkscape-font-specification:CMSY6;writing-mode:lr-tb;fill:#000000;fill-opacity:1;fill-rule:nonzero;stroke:none"
       transform="matrix(1,0,0,-1,21.052913,89.055445)"><tspan
         id="tspan146"
         y="0"
         x="0">−</tspan></text>
<text
       id="text152"
       style="font-variant:normal;font-weight:normal;font-size:5.97758389px;font-family:CMR6;-inkscape-font-specification:CMR6;writing-mode:lr-tb;fill:#000000;fill-opacity:1;fill-rule:nonzero;stroke:none"
       transform="matrix(1,0,0,-1,26.809053,89.055445)"><tspan
         id="tspan150"
         y="0"
         x="0">2</tspan></text>
<path
       id="path154"
       style="fill:#000000;fill-opacity:1;fill-rule:nonzero;stroke:#000000;stroke-width:0.80000001;stroke-linecap:butt;stroke-linejoin:round;stroke-miterlimit:10;stroke-dasharray:none;stroke-opacity:1"
       d="m 37.461965,120.3872 h -3.5" /><text
       id="text158"
       style="font-variant:normal;font-weight:normal;font-size:7.97011185px;font-family:CMR8;-inkscape-font-specification:CMR8;writing-mode:lr-tb;fill:#000000;fill-opacity:1;fill-rule:nonzero;stroke:none"
       transform="matrix(1,0,0,-1,12.584547,117.6198)"><tspan
         id="tspan156"
         y="0"
         x="0 4.2321296">10</tspan></text>
<text
       id="text162"
       style="font-style:italic;font-variant:normal;font-weight:normal;font-size:5.97758389px;font-family:CMSY6;-inkscape-font-specification:CMSY6;writing-mode:lr-tb;fill:#000000;fill-opacity:1;fill-rule:nonzero;stroke:none"
       transform="matrix(1,0,0,-1,21.052913,120.43258)"><tspan
         id="tspan160"
         y="0"
         x="0">−</tspan></text>
<text
       id="text166"
       style="font-variant:normal;font-weight:normal;font-size:5.97758389px;font-family:CMR6;-inkscape-font-specification:CMR6;writing-mode:lr-tb;fill:#000000;fill-opacity:1;fill-rule:nonzero;stroke:none"
       transform="matrix(1,0,0,-1,26.809053,120.43258)"><tspan
         id="tspan164"
         y="0"
         x="0">1</tspan></text>
<path
       id="path168"
       style="fill:#000000;fill-opacity:1;fill-rule:nonzero;stroke:#000000;stroke-width:0.80000001;stroke-linecap:butt;stroke-linejoin:round;stroke-miterlimit:10;stroke-dasharray:none;stroke-opacity:1"
       d="m 37.461965,151.76434 h -3.5" /><text
       id="text172"
       style="font-variant:normal;font-weight:normal;font-size:7.97011185px;font-family:CMR8;-inkscape-font-specification:CMR8;writing-mode:lr-tb;fill:#000000;fill-opacity:1;fill-rule:nonzero;stroke:none"
       transform="matrix(1,0,0,-1,18.340687,148.99693)"><tspan
         id="tspan170"
         y="0"
         x="0 4.2321296">10</tspan></text>
<text
       id="text176"
       style="font-variant:normal;font-weight:normal;font-size:5.97758389px;font-family:CMR6;-inkscape-font-specification:CMR6;writing-mode:lr-tb;fill:#000000;fill-opacity:1;fill-rule:nonzero;stroke:none"
       transform="matrix(1,0,0,-1,26.809053,151.80972)"><tspan
         id="tspan174"
         y="0"
         x="0">0</tspan></text>
<path
       id="path178"
       style="fill:#000000;fill-opacity:1;fill-rule:nonzero;stroke:#000000;stroke-width:0.60000002;stroke-linecap:butt;stroke-linejoin:round;stroke-miterlimit:10;stroke-dasharray:none;stroke-opacity:1"
       d="m 37.461965,35.701245 h -2" /><path
       id="path180"
       style="fill:#000000;fill-opacity:1;fill-rule:nonzero;stroke:#000000;stroke-width:0.60000002;stroke-linecap:butt;stroke-linejoin:round;stroke-miterlimit:10;stroke-dasharray:none;stroke-opacity:1"
       d="m 37.461965,41.226484 h -2" /><path
       id="path182"
       style="fill:#000000;fill-opacity:1;fill-rule:nonzero;stroke:#000000;stroke-width:0.60000002;stroke-linecap:butt;stroke-linejoin:round;stroke-miterlimit:10;stroke-dasharray:none;stroke-opacity:1"
       d="m 37.461965,45.146704 h -2" /><path
       id="path184"
       style="fill:#000000;fill-opacity:1;fill-rule:nonzero;stroke:#000000;stroke-width:0.60000002;stroke-linecap:butt;stroke-linejoin:round;stroke-miterlimit:10;stroke-dasharray:none;stroke-opacity:1"
       d="m 37.461965,48.187463 h -2" /><path
       id="path186"
       style="fill:#000000;fill-opacity:1;fill-rule:nonzero;stroke:#000000;stroke-width:0.60000002;stroke-linecap:butt;stroke-linejoin:round;stroke-miterlimit:10;stroke-dasharray:none;stroke-opacity:1"
       d="m 37.461965,50.671944 h -2" /><path
       id="path188"
       style="fill:#000000;fill-opacity:1;fill-rule:nonzero;stroke:#000000;stroke-width:0.60000002;stroke-linecap:butt;stroke-linejoin:round;stroke-miterlimit:10;stroke-dasharray:none;stroke-opacity:1"
       d="m 37.461965,52.772543 h -2" /><path
       id="path190"
       style="fill:#000000;fill-opacity:1;fill-rule:nonzero;stroke:#000000;stroke-width:0.60000002;stroke-linecap:butt;stroke-linejoin:round;stroke-miterlimit:10;stroke-dasharray:none;stroke-opacity:1"
       d="m 37.461965,54.592164 h -2" /><path
       id="path192"
       style="fill:#000000;fill-opacity:1;fill-rule:nonzero;stroke:#000000;stroke-width:0.60000002;stroke-linecap:butt;stroke-linejoin:round;stroke-miterlimit:10;stroke-dasharray:none;stroke-opacity:1"
       d="m 37.461965,56.197184 h -2" /><path
       id="path194"
       style="fill:#000000;fill-opacity:1;fill-rule:nonzero;stroke:#000000;stroke-width:0.60000002;stroke-linecap:butt;stroke-linejoin:round;stroke-miterlimit:10;stroke-dasharray:none;stroke-opacity:1"
       d="m 37.461965,67.078382 h -2" /><path
       id="path196"
       style="fill:#000000;fill-opacity:1;fill-rule:nonzero;stroke:#000000;stroke-width:0.60000002;stroke-linecap:butt;stroke-linejoin:round;stroke-miterlimit:10;stroke-dasharray:none;stroke-opacity:1"
       d="m 37.461965,72.603622 h -2" /><path
       id="path198"
       style="fill:#000000;fill-opacity:1;fill-rule:nonzero;stroke:#000000;stroke-width:0.60000002;stroke-linecap:butt;stroke-linejoin:round;stroke-miterlimit:10;stroke-dasharray:none;stroke-opacity:1"
       d="m 37.461965,76.523842 h -2" /><path
       id="path200"
       style="fill:#000000;fill-opacity:1;fill-rule:nonzero;stroke:#000000;stroke-width:0.60000002;stroke-linecap:butt;stroke-linejoin:round;stroke-miterlimit:10;stroke-dasharray:none;stroke-opacity:1"
       d="m 37.461965,79.564601 h -2" /><path
       id="path202"
       style="fill:#000000;fill-opacity:1;fill-rule:nonzero;stroke:#000000;stroke-width:0.60000002;stroke-linecap:butt;stroke-linejoin:round;stroke-miterlimit:10;stroke-dasharray:none;stroke-opacity:1"
       d="m 37.461965,82.049082 h -2" /><path
       id="path204"
       style="fill:#000000;fill-opacity:1;fill-rule:nonzero;stroke:#000000;stroke-width:0.60000002;stroke-linecap:butt;stroke-linejoin:round;stroke-miterlimit:10;stroke-dasharray:none;stroke-opacity:1"
       d="m 37.461965,84.14968 h -2" /><path
       id="path206"
       style="fill:#000000;fill-opacity:1;fill-rule:nonzero;stroke:#000000;stroke-width:0.60000002;stroke-linecap:butt;stroke-linejoin:round;stroke-miterlimit:10;stroke-dasharray:none;stroke-opacity:1"
       d="m 37.461965,85.969302 h -2" /><path
       id="path208"
       style="fill:#000000;fill-opacity:1;fill-rule:nonzero;stroke:#000000;stroke-width:0.60000002;stroke-linecap:butt;stroke-linejoin:round;stroke-miterlimit:10;stroke-dasharray:none;stroke-opacity:1"
       d="m 37.461965,87.574321 h -2" /><path
       id="path210"
       style="fill:#000000;fill-opacity:1;fill-rule:nonzero;stroke:#000000;stroke-width:0.60000002;stroke-linecap:butt;stroke-linejoin:round;stroke-miterlimit:10;stroke-dasharray:none;stroke-opacity:1"
       d="m 37.461965,98.45552 h -2" /><path
       id="path212"
       style="fill:#000000;fill-opacity:1;fill-rule:nonzero;stroke:#000000;stroke-width:0.60000002;stroke-linecap:butt;stroke-linejoin:round;stroke-miterlimit:10;stroke-dasharray:none;stroke-opacity:1"
       d="m 37.461965,103.98076 h -2" /><path
       id="path214"
       style="fill:#000000;fill-opacity:1;fill-rule:nonzero;stroke:#000000;stroke-width:0.60000002;stroke-linecap:butt;stroke-linejoin:round;stroke-miterlimit:10;stroke-dasharray:none;stroke-opacity:1"
       d="m 37.461965,107.90098 h -2" /><path
       id="path216"
       style="fill:#000000;fill-opacity:1;fill-rule:nonzero;stroke:#000000;stroke-width:0.60000002;stroke-linecap:butt;stroke-linejoin:round;stroke-miterlimit:10;stroke-dasharray:none;stroke-opacity:1"
       d="m 37.461965,110.94174 h -2" /><path
       id="path218"
       style="fill:#000000;fill-opacity:1;fill-rule:nonzero;stroke:#000000;stroke-width:0.60000002;stroke-linecap:butt;stroke-linejoin:round;stroke-miterlimit:10;stroke-dasharray:none;stroke-opacity:1"
       d="m 37.461965,113.42622 h -2" /><path
       id="path220"
       style="fill:#000000;fill-opacity:1;fill-rule:nonzero;stroke:#000000;stroke-width:0.60000002;stroke-linecap:butt;stroke-linejoin:round;stroke-miterlimit:10;stroke-dasharray:none;stroke-opacity:1"
       d="m 37.461965,115.52682 h -2" /><path
       id="path222"
       style="fill:#000000;fill-opacity:1;fill-rule:nonzero;stroke:#000000;stroke-width:0.60000002;stroke-linecap:butt;stroke-linejoin:round;stroke-miterlimit:10;stroke-dasharray:none;stroke-opacity:1"
       d="m 37.461965,117.34644 h -2" /><path
       id="path224"
       style="fill:#000000;fill-opacity:1;fill-rule:nonzero;stroke:#000000;stroke-width:0.60000002;stroke-linecap:butt;stroke-linejoin:round;stroke-miterlimit:10;stroke-dasharray:none;stroke-opacity:1"
       d="m 37.461965,118.95146 h -2" /><path
       id="path226"
       style="fill:#000000;fill-opacity:1;fill-rule:nonzero;stroke:#000000;stroke-width:0.60000002;stroke-linecap:butt;stroke-linejoin:round;stroke-miterlimit:10;stroke-dasharray:none;stroke-opacity:1"
       d="m 37.461965,129.83266 h -2" /><path
       id="path228"
       style="fill:#000000;fill-opacity:1;fill-rule:nonzero;stroke:#000000;stroke-width:0.60000002;stroke-linecap:butt;stroke-linejoin:round;stroke-miterlimit:10;stroke-dasharray:none;stroke-opacity:1"
       d="m 37.461965,135.3579 h -2" /><path
       id="path230"
       style="fill:#000000;fill-opacity:1;fill-rule:nonzero;stroke:#000000;stroke-width:0.60000002;stroke-linecap:butt;stroke-linejoin:round;stroke-miterlimit:10;stroke-dasharray:none;stroke-opacity:1"
       d="m 37.461965,139.27812 h -2" /><path
       id="path232"
       style="fill:#000000;fill-opacity:1;fill-rule:nonzero;stroke:#000000;stroke-width:0.60000002;stroke-linecap:butt;stroke-linejoin:round;stroke-miterlimit:10;stroke-dasharray:none;stroke-opacity:1"
       d="m 37.461965,142.31888 h -2" /><path
       id="path234"
       style="fill:#000000;fill-opacity:1;fill-rule:nonzero;stroke:#000000;stroke-width:0.60000002;stroke-linecap:butt;stroke-linejoin:round;stroke-miterlimit:10;stroke-dasharray:none;stroke-opacity:1"
       d="m 37.461965,144.80336 h -2" /><path
       id="path236"
       style="fill:#000000;fill-opacity:1;fill-rule:nonzero;stroke:#000000;stroke-width:0.60000002;stroke-linecap:butt;stroke-linejoin:round;stroke-miterlimit:10;stroke-dasharray:none;stroke-opacity:1"
       d="m 37.461965,146.90396 h -2" /><path
       id="path238"
       style="fill:#000000;fill-opacity:1;fill-rule:nonzero;stroke:#000000;stroke-width:0.60000002;stroke-linecap:butt;stroke-linejoin:round;stroke-miterlimit:10;stroke-dasharray:none;stroke-opacity:1"
       d="m 37.461965,148.72358 h -2" /><path
       id="path240"
       style="fill:#000000;fill-opacity:1;fill-rule:nonzero;stroke:#000000;stroke-width:0.60000002;stroke-linecap:butt;stroke-linejoin:round;stroke-miterlimit:10;stroke-dasharray:none;stroke-opacity:1"
       d="m 37.461965,150.3286 h -2" /><path
       id="path242"
       style="fill:#000000;fill-opacity:1;fill-rule:nonzero;stroke:#000000;stroke-width:0.60000002;stroke-linecap:butt;stroke-linejoin:round;stroke-miterlimit:10;stroke-dasharray:none;stroke-opacity:1"
       d="m 37.461965,161.20979 h -2" /><path
       id="path244"
       style="fill:#000000;fill-opacity:1;fill-rule:nonzero;stroke:#000000;stroke-width:0.60000002;stroke-linecap:butt;stroke-linejoin:round;stroke-miterlimit:10;stroke-dasharray:none;stroke-opacity:1"
       d="m 37.461965,166.73503 h -2" /><path
       id="path246"
       style="fill:#000000;fill-opacity:1;fill-rule:nonzero;stroke:#000000;stroke-width:0.60000002;stroke-linecap:butt;stroke-linejoin:round;stroke-miterlimit:10;stroke-dasharray:none;stroke-opacity:1"
       d="m 37.461965,170.65525 h -2" /><path
       id="path248"
       style="fill:#000000;fill-opacity:1;fill-rule:nonzero;stroke:#000000;stroke-width:0.60000002;stroke-linecap:butt;stroke-linejoin:round;stroke-miterlimit:10;stroke-dasharray:none;stroke-opacity:1"
       d="m 37.461965,173.69601 h -2" /><path
       id="path250"
       style="fill:#000000;fill-opacity:1;fill-rule:nonzero;stroke:#000000;stroke-width:0.60000002;stroke-linecap:butt;stroke-linejoin:round;stroke-miterlimit:10;stroke-dasharray:none;stroke-opacity:1"
       d="m 37.461965,176.18049 h -2" /><text
       id="text254"
       style="font-style:italic;font-variant:normal;font-weight:normal;font-size:7.97011185px;font-family:CMMI8;-inkscape-font-specification:CMMI8;writing-mode:lr-tb;fill:#000000;fill-opacity:1;fill-rule:nonzero;stroke:none"
       transform="matrix(0,1,1,0,7.0348017,86.265798)"><tspan
         id="tspan252"
         y="0"
         x="0">L</tspan></text>
<text
       id="text258"
       style="font-variant:normal;font-weight:normal;font-size:5.97758389px;font-family:CMR6;-inkscape-font-specification:CMR6;writing-mode:lr-tb;fill:#000000;fill-opacity:1;fill-rule:nonzero;stroke:none"
       transform="matrix(0,1,1,0,4.222016,92.024841)"><tspan
         id="tspan256"
         y="0"
         x="0">2</tspan></text>
<text
       id="text262"
       style="font-variant:normal;font-weight:normal;font-size:7.97011185px;font-family:CMR8;-inkscape-font-specification:CMR8;writing-mode:lr-tb;fill:#000000;fill-opacity:1;fill-rule:nonzero;stroke:none"
       transform="matrix(0,1,1,0,7.0348017,98.998674)"><tspan
         id="tspan260"
         y="0"
         x="0 3.7618928 7.0615191 10.361146 14.593275">error</tspan></text>
<g
       id="g264"><g
         clip-path="url(#clipPath270)"
         id="g266"><g
           transform="translate(275.18009,146.72076)"
           id="g272"><g
             id="g274"><g
               clip-path="url(#clipPath280)"
               id="g276"><path
                 id="path282"
                 style="fill:#1f77b4;fill-opacity:1;fill-rule:nonzero;stroke:#1f77b4;stroke-width:1;stroke-linecap:butt;stroke-linejoin:round;stroke-miterlimit:10;stroke-dasharray:none;stroke-opacity:1"
                 d="m 0,-1.5 c 0.397805,0 0.77937,0.158049 1.06066,0.43934 C 1.341951,-0.77937 1.5,-0.397805 1.5,0 1.5,0.397805 1.341951,0.77937 1.06066,1.06066 0.77937,1.341951 0.397805,1.5 0,1.5 -0.397805,1.5 -0.77937,1.341951 -1.06066,1.06066 -1.341951,0.77937 -1.5,0.397805 -1.5,0 c 0,-0.397805 0.158049,-0.77937 0.43934,-1.06066 C -0.77937,-1.341951 -0.397805,-1.5 0,-1.5 Z" /></g></g><g
             transform="translate(-42.288771,-0.66400722)"
             id="g284"><g
               id="g286"><g
                 clip-path="url(#clipPath292)"
                 id="g288"><path
                   id="path294"
                   style="fill:#1f77b4;fill-opacity:1;fill-rule:nonzero;stroke:#1f77b4;stroke-width:1;stroke-linecap:butt;stroke-linejoin:round;stroke-miterlimit:10;stroke-dasharray:none;stroke-opacity:1"
                   d="m 0,-1.5 c 0.397805,0 0.77937,0.158049 1.06066,0.43934 C 1.341951,-0.77937 1.5,-0.397805 1.5,0 1.5,0.397805 1.341951,0.77937 1.06066,1.06066 0.77937,1.341951 0.397805,1.5 0,1.5 -0.397805,1.5 -0.77937,1.341951 -1.06066,1.06066 -1.341951,0.77937 -1.5,0.397805 -1.5,0 c 0,-0.397805 0.158049,-0.77937 0.43934,-1.06066 C -0.77937,-1.341951 -0.397805,-1.5 0,-1.5 Z" /></g></g><g
               transform="translate(-36.518304,-1.698829)"
               id="g296"><g
                 id="g298"><g
                   clip-path="url(#clipPath304)"
                   id="g300"><path
                     id="path306"
                     style="fill:#1f77b4;fill-opacity:1;fill-rule:nonzero;stroke:#1f77b4;stroke-width:1;stroke-linecap:butt;stroke-linejoin:round;stroke-miterlimit:10;stroke-dasharray:none;stroke-opacity:1"
                     d="m 0,-1.5 c 0.397805,0 0.77937,0.158049 1.06066,0.43934 C 1.341951,-0.77937 1.5,-0.397805 1.5,0 1.5,0.397805 1.341951,0.77937 1.06066,1.06066 0.77937,1.341951 0.397805,1.5 0,1.5 -0.397805,1.5 -0.77937,1.341951 -1.06066,1.06066 -1.341951,0.77937 -1.5,0.397805 -1.5,0 c 0,-0.397805 0.158049,-0.77937 0.43934,-1.06066 C -0.77937,-1.341951 -0.397805,-1.5 0,-1.5 Z" /></g></g><g
                 transform="translate(-73.709858,-8.286259)"
                 id="g308"><g
                   id="g310"><g
                     clip-path="url(#clipPath316)"
                     id="g312"><path
                       id="path318"
                       style="fill:#1f77b4;fill-opacity:1;fill-rule:nonzero;stroke:#1f77b4;stroke-width:1;stroke-linecap:butt;stroke-linejoin:round;stroke-miterlimit:10;stroke-dasharray:none;stroke-opacity:1"
                       d="m 0,-1.5 c 0.397805,0 0.77937,0.158049 1.06066,0.43934 C 1.341951,-0.77937 1.5,-0.397805 1.5,0 1.5,0.397805 1.341951,0.77937 1.06066,1.06066 0.77937,1.341951 0.397805,1.5 0,1.5 -0.397805,1.5 -0.77937,1.341951 -1.06066,1.06066 -1.341951,0.77937 -1.5,0.397805 -1.5,0 c 0,-0.397805 0.158049,-0.77937 0.43934,-1.06066 C -0.77937,-1.341951 -0.397805,-1.5 0,-1.5 Z" /></g></g><g
                   transform="translate(-73.88128,-15.511334)"
                   id="g320"><g
                     id="g322"><g
                       clip-path="url(#clipPath328)"
                       id="g324"><path
                         id="path330"
                         style="fill:#1f77b4;fill-opacity:1;fill-rule:nonzero;stroke:#1f77b4;stroke-width:1;stroke-linecap:butt;stroke-linejoin:round;stroke-miterlimit:10;stroke-dasharray:none;stroke-opacity:1"
                         d="m 0,-1.5 c 0.397805,0 0.77937,0.158049 1.06066,0.43934 C 1.341951,-0.77937 1.5,-0.397805 1.5,0 1.5,0.397805 1.341951,0.77937 1.06066,1.06066 0.77937,1.341951 0.397805,1.5 0,1.5 -0.397805,1.5 -0.77937,1.341951 -1.06066,1.06066 -1.341951,0.77937 -1.5,0.397805 -1.5,0 c 0,-0.397805 0.158049,-0.77937 0.43934,-1.06066 C -0.77937,-1.341951 -0.397805,-1.5 0,-1.5 Z" /></g></g></g></g></g></g></g></g></g><g
       id="g332"><g
         clip-path="url(#clipPath338)"
         id="g334"><path
           id="path340"
           style="fill:none;stroke:#1f77b4;stroke-width:1.5;stroke-linecap:square;stroke-linejoin:round;stroke-miterlimit:10;stroke-dasharray:none;stroke-opacity:1"
           d="m 48.781876,116.23462 13.560422,3.2014 12.133663,2.86456 10.97876,2.59191 10.024728,2.36667 9.223321,2.17748 8.54063,2.01631 7.95207,1.87735 7.43941,1.75633 6.98889,1.64996 6.58982,1.55575 6.23387,1.47171 5.91442,1.3963 5.62612,1.32824 5.36462,1.2665 5.12635,1.21025 4.90836,1.15878 4.70814,1.11152 4.52363,1.06795 4.35303,1.02768 4.19484,0.99034 4.04774,0.9556 3.9106,0.92323 3.78247,0.89298 3.66245,0.86464 3.54982,0.83806 3.44391,0.81305 3.34414,0.7895 3.24999,0.76727 3.16099,0.74626 3.07674,0.72637 2.99686,0.70751 2.92103,0.68961 2.84894,0.67258 2.78032,0.65639 2.71493,0.64095 2.65255,0.62623 2.59296,0.61215 2.536,0.59871 2.48148,0.58584 2.42926,0.57351 2.3792,0.56169 2.33115,0.55034 2.285,0.53946 2.24066,0.52898 2.19799,0.51891 2.15692,0.50921 2.11736,0.49988 2.07922,0.49087 2.04244,0.48218" /></g></g><g
       id="g342"><g
         clip-path="url(#clipPath348)"
         id="g344"><g
           transform="translate(232.89132,138.83244)"
           id="g350"><g
             id="g352"><g
               clip-path="url(#clipPath358)"
               id="g354"><path
                 id="path360"
                 style="fill:#ff7f0e;fill-opacity:1;fill-rule:nonzero;stroke:#ff7f0e;stroke-width:1;stroke-linecap:butt;stroke-linejoin:round;stroke-miterlimit:10;stroke-dasharray:none;stroke-opacity:1"
                 d="m 0,-1.5 c 0.397805,0 0.77937,0.158049 1.06066,0.43934 C 1.341951,-0.77937 1.5,-0.397805 1.5,0 1.5,0.397805 1.341951,0.77937 1.06066,1.06066 0.77937,1.341951 0.397805,1.5 0,1.5 -0.397805,1.5 -0.77937,1.341951 -1.06066,1.06066 -1.341951,0.77937 -1.5,0.397805 -1.5,0 c 0,-0.397805 0.158049,-0.77937 0.43934,-1.06066 C -0.77937,-1.341951 -0.397805,-1.5 0,-1.5 Z" /></g></g><g
             transform="translate(-36.518304,-11.029522)"
             id="g362"><g
               id="g364"><g
                 clip-path="url(#clipPath370)"
                 id="g366"><path
                   id="path372"
                   style="fill:#ff7f0e;fill-opacity:1;fill-rule:nonzero;stroke:#ff7f0e;stroke-width:1;stroke-linecap:butt;stroke-linejoin:round;stroke-miterlimit:10;stroke-dasharray:none;stroke-opacity:1"
                   d="m 0,-1.5 c 0.397805,0 0.77937,0.158049 1.06066,0.43934 C 1.341951,-0.77937 1.5,-0.397805 1.5,0 1.5,0.397805 1.341951,0.77937 1.06066,1.06066 0.77937,1.341951 0.397805,1.5 0,1.5 -0.397805,1.5 -0.77937,1.341951 -1.06066,1.06066 -1.341951,0.77937 -1.5,0.397805 -1.5,0 c 0,-0.397805 0.158049,-0.77937 0.43934,-1.06066 C -0.77937,-1.341951 -0.397805,-1.5 0,-1.5 Z" /></g></g><g
               transform="translate(-73.709858,-27.968813)"
               id="g374"><g
                 id="g376"><g
                   clip-path="url(#clipPath382)"
                   id="g378"><path
                     id="path384"
                     style="fill:#ff7f0e;fill-opacity:1;fill-rule:nonzero;stroke:#ff7f0e;stroke-width:1;stroke-linecap:butt;stroke-linejoin:round;stroke-miterlimit:10;stroke-dasharray:none;stroke-opacity:1"
                     d="m 0,-1.5 c 0.397805,0 0.77937,0.158049 1.06066,0.43934 C 1.341951,-0.77937 1.5,-0.397805 1.5,0 1.5,0.397805 1.341951,0.77937 1.06066,1.06066 0.77937,1.341951 0.397805,1.5 0,1.5 -0.397805,1.5 -0.77937,1.341951 -1.06066,1.06066 -1.341951,0.77937 -1.5,0.397805 -1.5,0 c 0,-0.397805 0.158049,-0.77937 0.43934,-1.06066 C -0.77937,-1.341951 -0.397805,-1.5 0,-1.5 Z" /></g></g><g
                 transform="translate(-73.88128,-27.824)"
                 id="g386"><g
                   id="g388"><g
                     clip-path="url(#clipPath394)"
                     id="g390"><path
                       id="path396"
                       style="fill:#ff7f0e;fill-opacity:1;fill-rule:nonzero;stroke:#ff7f0e;stroke-width:1;stroke-linecap:butt;stroke-linejoin:round;stroke-miterlimit:10;stroke-dasharray:none;stroke-opacity:1"
                       d="m 0,-1.5 c 0.397805,0 0.77937,0.158049 1.06066,0.43934 C 1.341951,-0.77937 1.5,-0.397805 1.5,0 1.5,0.397805 1.341951,0.77937 1.06066,1.06066 0.77937,1.341951 0.397805,1.5 0,1.5 -0.397805,1.5 -0.77937,1.341951 -1.06066,1.06066 -1.341951,0.77937 -1.5,0.397805 -1.5,0 c 0,-0.397805 0.158049,-0.77937 0.43934,-1.06066 C -0.77937,-1.341951 -0.397805,-1.5 0,-1.5 Z" /></g></g></g></g></g></g></g></g><g
       id="g398"><g
         clip-path="url(#clipPath404)"
         id="g400"><path
           id="path406"
           style="fill:none;stroke:#ff7f0e;stroke-width:1.5;stroke-linecap:square;stroke-linejoin:round;stroke-miterlimit:10;stroke-dasharray:none;stroke-opacity:1"
           d="m 48.781876,72.840477 8.900837,3.152016 8.263413,2.926286 7.711216,2.73074 7.228219,2.559698 6.802178,2.408827 6.423577,2.274753 6.084904,2.154823 5.78017,2.046906 5.5045,1.949286 5.25394,1.860554 5.0252,1.77955 4.81554,1.705304 4.62268,1.63701 4.44468,1.57398 4.27987,1.51561 4.12687,1.46143 3.98441,1.41098 3.85146,1.3639 3.72711,1.31987 3.61052,1.27858 3.50103,1.2398 3.39796,1.20331 3.3008,1.1689 3.20904,1.1364 3.12224,1.10567 3.04001,1.07654 2.96201,1.04893 2.88791,1.02268 2.81742,0.99772 2.7503,0.97395 2.68629,0.95128 2.6252,0.92966 2.56683,0.90898 2.511,0.88921 2.45754,0.87027 2.40631,0.85214 2.35718,0.83474 2.31,0.81803 2.26469,0.80198 2.22111,0.78656 2.17919,0.7717 2.13881,0.75741 2.0999,0.74363 2.06239,0.73034 2.02618,0.71753 1.99124,0.70515 1.95747,0.69319 1.92483,0.68163 1.89327,0.67045" /></g></g><g
       id="g408"><g
         clip-path="url(#clipPath414)"
         id="g410"><g
           transform="translate(275.18009,137.05737)"
           id="g416"><g
             id="g418"><g
               clip-path="url(#clipPath424)"
               id="g420"><path
                 id="path426"
                 style="fill:#2ca02c;fill-opacity:1;fill-rule:nonzero;stroke:#2ca02c;stroke-width:1;stroke-linecap:butt;stroke-linejoin:round;stroke-miterlimit:10;stroke-dasharray:none;stroke-opacity:1"
                 d="m 0,-1.5 c 0.397805,0 0.77937,0.158049 1.06066,0.43934 C 1.341951,-0.77937 1.5,-0.397805 1.5,0 1.5,0.397805 1.341951,0.77937 1.06066,1.06066 0.77937,1.341951 0.397805,1.5 0,1.5 -0.397805,1.5 -0.77937,1.341951 -1.06066,1.06066 -1.341951,0.77937 -1.5,0.397805 -1.5,0 c 0,-0.397805 0.158049,-0.77937 0.43934,-1.06066 C -0.77937,-1.341951 -0.397805,-1.5 0,-1.5 Z" /></g></g><g
             transform="translate(-42.288771,-12.909937)"
             id="g428"><g
               id="g430"><g
                 clip-path="url(#clipPath436)"
                 id="g432"><path
                   id="path438"
                   style="fill:#2ca02c;fill-opacity:1;fill-rule:nonzero;stroke:#2ca02c;stroke-width:1;stroke-linecap:butt;stroke-linejoin:round;stroke-miterlimit:10;stroke-dasharray:none;stroke-opacity:1"
                   d="m 0,-1.5 c 0.397805,0 0.77937,0.158049 1.06066,0.43934 C 1.341951,-0.77937 1.5,-0.397805 1.5,0 1.5,0.397805 1.341951,0.77937 1.06066,1.06066 0.77937,1.341951 0.397805,1.5 0,1.5 -0.397805,1.5 -0.77937,1.341951 -1.06066,1.06066 -1.341951,0.77937 -1.5,0.397805 -1.5,0 c 0,-0.397805 0.158049,-0.77937 0.43934,-1.06066 C -0.77937,-1.341951 -0.397805,-1.5 0,-1.5 Z" /></g></g><g
               transform="translate(-36.518304,-17.825516)"
               id="g440"><g
                 id="g442"><g
                   clip-path="url(#clipPath448)"
                   id="g444"><path
                     id="path450"
                     style="fill:#2ca02c;fill-opacity:1;fill-rule:nonzero;stroke:#2ca02c;stroke-width:1;stroke-linecap:butt;stroke-linejoin:round;stroke-miterlimit:10;stroke-dasharray:none;stroke-opacity:1"
                     d="m 0,-1.5 c 0.397805,0 0.77937,0.158049 1.06066,0.43934 C 1.341951,-0.77937 1.5,-0.397805 1.5,0 1.5,0.397805 1.341951,0.77937 1.06066,1.06066 0.77937,1.341951 0.397805,1.5 0,1.5 -0.397805,1.5 -0.77937,1.341951 -1.06066,1.06066 -1.341951,0.77937 -1.5,0.397805 -1.5,0 c 0,-0.397805 0.158049,-0.77937 0.43934,-1.06066 C -0.77937,-1.341951 -0.397805,-1.5 0,-1.5 Z" /></g></g><g
                 transform="translate(-73.709858,-35.893245)"
                 id="g452"><g
                   id="g454"><g
                     clip-path="url(#clipPath460)"
                     id="g456"><path
                       id="path462"
                       style="fill:#2ca02c;fill-opacity:1;fill-rule:nonzero;stroke:#2ca02c;stroke-width:1;stroke-linecap:butt;stroke-linejoin:round;stroke-miterlimit:10;stroke-dasharray:none;stroke-opacity:1"
                       d="m 0,-1.5 c 0.397805,0 0.77937,0.158049 1.06066,0.43934 C 1.341951,-0.77937 1.5,-0.397805 1.5,0 1.5,0.397805 1.341951,0.77937 1.06066,1.06066 0.77937,1.341951 0.397805,1.5 0,1.5 -0.397805,1.5 -0.77937,1.341951 -1.06066,1.06066 -1.341951,0.77937 -1.5,0.397805 -1.5,0 c 0,-0.397805 0.158049,-0.77937 0.43934,-1.06066 C -0.77937,-1.341951 -0.397805,-1.5 0,-1.5 Z" /></g></g><g
                   transform="translate(-73.88128,-36.949363)"
                   id="g464"><g
                     id="g466"><g
                       clip-path="url(#clipPath472)"
                       id="g468"><path
                         id="path474"
                         style="fill:#2ca02c;fill-opacity:1;fill-rule:nonzero;stroke:#2ca02c;stroke-width:1;stroke-linecap:butt;stroke-linejoin:round;stroke-miterlimit:10;stroke-dasharray:none;stroke-opacity:1"
                         d="m 0,-1.5 c 0.397805,0 0.77937,0.158049 1.06066,0.43934 C 1.341951,-0.77937 1.5,-0.397805 1.5,0 1.5,0.397805 1.341951,0.77937 1.06066,1.06066 0.77937,1.341951 0.397805,1.5 0,1.5 -0.397805,1.5 -0.77937,1.341951 -1.06066,1.06066 -1.341951,0.77937 -1.5,0.397805 -1.5,0 c 0,-0.397805 0.158049,-0.77937 0.43934,-1.06066 C -0.77937,-1.341951 -0.397805,-1.5 0,-1.5 Z" /></g></g></g></g></g></g></g></g></g><g
       id="g476"><g
         clip-path="url(#clipPath482)"
         id="g478"><path
           id="path484"
           style="fill:none;stroke:#2ca02c;stroke-width:1.5;stroke-linecap:square;stroke-linejoin:round;stroke-miterlimit:10;stroke-dasharray:none;stroke-opacity:1"
           d="m 48.781876,35.219264 13.560422,6.402792 12.133663,5.729123 10.97876,5.183815 10.024728,4.733352 9.223321,4.354956 8.54063,4.032607 7.95207,3.754707 7.43941,3.512652 6.98889,3.299925 6.58982,3.111499 6.23387,2.943434 5.91442,2.792597 5.62612,2.65647 5.36462,2.532999 5.12635,2.420499 4.90836,2.317566 4.70814,2.223034 4.52363,2.135911 4.35303,2.055358 4.19484,1.98067 4.04774,1.91121 3.9106,1.84646 3.78247,1.78596 3.66245,1.72929 3.54982,1.67611 3.44391,1.6261 3.34414,1.579 3.24999,1.53454 3.16099,1.49251 3.07674,1.45274 2.99686,1.41502 2.92103,1.37922 2.84894,1.34517 2.78032,1.31278 2.71493,1.2819 2.65255,1.25245 2.59296,1.22431 2.536,1.19742 2.48148,1.17167 2.42926,1.14702 2.3792,1.12338 2.33115,1.1007 2.285,1.0789 2.24066,1.05797 2.19799,1.03782 2.15692,1.01842 2.11736,0.99975 2.07922,0.98175 2.04244,0.96437" /></g></g><g
       id="g486"><path
         id="path488"
         style="fill:none;stroke:#000000;stroke-width:0.80000001;stroke-linecap:square;stroke-linejoin:miter;stroke-miterlimit:10;stroke-dasharray:none;stroke-opacity:1"
         d="M 37.461965,26.669095 V 176.49379" /><path
         id="path490"
         style="fill:none;stroke:#000000;stroke-width:0.80000001;stroke-linecap:square;stroke-linejoin:miter;stroke-miterlimit:10;stroke-dasharray:none;stroke-opacity:1"
         d="M 286.5,26.669095 V 176.49379" /><path
         id="path492"
         style="fill:none;stroke:#000000;stroke-width:0.80000001;stroke-linecap:square;stroke-linejoin:miter;stroke-miterlimit:10;stroke-dasharray:none;stroke-opacity:1"
         d="M 37.461965,26.669095 H 286.5" /><path
         id="path494"
         style="fill:none;stroke:#000000;stroke-width:0.80000001;stroke-linecap:square;stroke-linejoin:miter;stroke-miterlimit:10;stroke-dasharray:none;stroke-opacity:1"
         d="M 37.461965,176.49379 H 286.5" /><text
         id="text498"
         style="font-variant:normal;font-weight:normal;font-size:9.96263981px;font-family:CMR10;-inkscape-font-specification:CMR10;writing-mode:lr-tb;fill:#1f77b4;fill-opacity:1;fill-rule:nonzero;stroke:none"
         transform="matrix(0.97324554,0.22976751,0.22976751,-0.97324554,52.781876,121.23462)"><tspan
           id="tspan496"
           y="0"
           x="0 3.9252801 6.6849313 11.666251 17.472265 25.216553">slope2</tspan></text>
<text
         id="text502"
         style="font-variant:normal;font-weight:normal;font-size:9.96263981px;font-family:CMR10;-inkscape-font-specification:CMR10;writing-mode:lr-tb;fill:#ff7f0e;fill-opacity:1;fill-rule:nonzero;stroke:none"
         transform="matrix(0.94263937,0.33381283,0.33381283,-0.94263937,52.781876,77.840477)"><tspan
           id="tspan500"
           y="0"
           x="0 3.9252801 6.6849313 11.666251 17.472265 25.216553">slope3</tspan></text>
<text
         id="text506"
         style="font-variant:normal;font-weight:normal;font-size:9.96263981px;font-family:CMR10;-inkscape-font-specification:CMR10;writing-mode:lr-tb;fill:#2ca02c;fill-opacity:1;fill-rule:nonzero;stroke:none"
         transform="matrix(0.90426771,0.42696592,0.42696592,-0.90426771,52.781876,40.219264)"><tspan
           id="tspan504"
           y="0"
           x="0 3.9252801 6.6849313 11.666251 17.472265 25.216553">slope4</tspan></text>
<path
         id="path508"
         style="fill:#ffffff;fill-opacity:0.8;fill-rule:nonzero;stroke:#cccccc;stroke-width:1;stroke-linecap:butt;stroke-linejoin:miter;stroke-miterlimit:10;stroke-dasharray:none;stroke-opacity:0.8"
         d="m 43.061965,136.64455 h 45.746953 c 1.066666,0 1.6,0.53333 1.6,1.6 v 32.64924 c 0,1.06666 -0.533334,1.6 -1.6,1.6 H 43.061965 c -1.066667,0 -1.6,-0.53334 -1.6,-1.6 v -32.64924 c 0,-1.06667 0.533333,-1.6 1.6,-1.6 z" /><path
         id="path510"
         style="fill:#1f77b4;fill-opacity:1;fill-rule:nonzero;stroke:#1f77b4;stroke-width:1;stroke-linecap:butt;stroke-linejoin:round;stroke-miterlimit:10;stroke-dasharray:none;stroke-opacity:1"
         d="m 52.661965,164.99379 c 0.397805,0 0.77937,0.15805 1.06066,0.43934 0.281291,0.28129 0.43934,0.66285 0.43934,1.06066 0,0.3978 -0.158049,0.77937 -0.43934,1.06066 -0.28129,0.28129 -0.662855,0.43934 -1.06066,0.43934 -0.397805,0 -0.77937,-0.15805 -1.06066,-0.43934 -0.28129,-0.28129 -0.43934,-0.66286 -0.43934,-1.06066 0,-0.39781 0.15805,-0.77937 0.43934,-1.06066 0.28129,-0.28129 0.662855,-0.43934 1.06066,-0.43934 z" /><text
         id="text514"
         style="font-style:italic;font-variant:normal;font-weight:normal;font-size:7.97011185px;font-family:CMMI8;-inkscape-font-specification:CMMI8;writing-mode:lr-tb;fill:#000000;fill-opacity:1;fill-rule:nonzero;stroke:none"
         transform="matrix(1,0,0,-1,67.061965,163.69379)"><tspan
           id="tspan512"
           y="0"
           x="0">k</tspan></text>
<text
         id="text518"
         style="font-variant:normal;font-weight:normal;font-size:7.97011185px;font-family:CMR8;-inkscape-font-specification:CMR8;writing-mode:lr-tb;fill:#000000;fill-opacity:1;fill-rule:nonzero;stroke:none"
         transform="matrix(1,0,0,-1,74.035904,163.69379)"><tspan
           id="tspan516"
           y="0"
           x="0 8.9356365">=1</tspan></text>
<path
         id="path520"
         style="fill:#ff7f0e;fill-opacity:1;fill-rule:nonzero;stroke:#ff7f0e;stroke-width:1;stroke-linecap:butt;stroke-linejoin:round;stroke-miterlimit:10;stroke-dasharray:none;stroke-opacity:1"
         d="m 52.661965,153.84404 c 0.397805,0 0.77937,0.15805 1.06066,0.43934 0.281291,0.28129 0.43934,0.66286 0.43934,1.06066 0,0.39781 -0.158049,0.77937 -0.43934,1.06066 -0.28129,0.28129 -0.662855,0.43934 -1.06066,0.43934 -0.397805,0 -0.77937,-0.15805 -1.06066,-0.43934 -0.28129,-0.28129 -0.43934,-0.66285 -0.43934,-1.06066 0,-0.3978 0.15805,-0.77937 0.43934,-1.06066 0.28129,-0.28129 0.662855,-0.43934 1.06066,-0.43934 z" /><text
         id="text524"
         style="font-style:italic;font-variant:normal;font-weight:normal;font-size:7.97011185px;font-family:CMMI8;-inkscape-font-specification:CMMI8;writing-mode:lr-tb;fill:#000000;fill-opacity:1;fill-rule:nonzero;stroke:none"
         transform="matrix(1,0,0,-1,67.061965,152.54404)"><tspan
           id="tspan522"
           y="0"
           x="0">k</tspan></text>
<text
         id="text528"
         style="font-variant:normal;font-weight:normal;font-size:7.97011185px;font-family:CMR8;-inkscape-font-specification:CMR8;writing-mode:lr-tb;fill:#000000;fill-opacity:1;fill-rule:nonzero;stroke:none"
         transform="matrix(1,0,0,-1,74.035904,152.54404)"><tspan
           id="tspan526"
           y="0"
           x="0 8.9356365">=2</tspan></text>
<path
         id="path530"
         style="fill:#2ca02c;fill-opacity:1;fill-rule:nonzero;stroke:#2ca02c;stroke-width:1;stroke-linecap:butt;stroke-linejoin:round;stroke-miterlimit:10;stroke-dasharray:none;stroke-opacity:1"
         d="m 52.661965,142.6943 c 0.397805,0 0.77937,0.15805 1.06066,0.43934 0.281291,0.28129 0.43934,0.66285 0.43934,1.06066 0,0.3978 -0.158049,0.77937 -0.43934,1.06066 -0.28129,0.28129 -0.662855,0.43934 -1.06066,0.43934 -0.397805,0 -0.77937,-0.15805 -1.06066,-0.43934 -0.28129,-0.28129 -0.43934,-0.66286 -0.43934,-1.06066 0,-0.39781 0.15805,-0.77937 0.43934,-1.06066 0.28129,-0.28129 0.662855,-0.43934 1.06066,-0.43934 z" /><text
         id="text534"
         style="font-style:italic;font-variant:normal;font-weight:normal;font-size:7.97011185px;font-family:CMMI8;-inkscape-font-specification:CMMI8;writing-mode:lr-tb;fill:#000000;fill-opacity:1;fill-rule:nonzero;stroke:none"
         transform="matrix(1,0,0,-1,67.061965,141.3943)"><tspan
           id="tspan532"
           y="0"
           x="0">k</tspan></text>
<text
         id="text538"
         style="font-variant:normal;font-weight:normal;font-size:7.97011185px;font-family:CMR8;-inkscape-font-specification:CMR8;writing-mode:lr-tb;fill:#000000;fill-opacity:1;fill-rule:nonzero;stroke:none"
         transform="matrix(1,0,0,-1,74.035904,141.3943)"><tspan
           id="tspan536"
           y="0"
           x="0 8.9356365">=3</tspan></text>
</g></g></svg>